iter	Passed	Remaining
0	50	50096
1	52	26370
2	54	18102
3	56	14044
4	57	11463
5	58	9717
6	59	8429
7	60	7502
8	61	6742
9	62	6148
10	62	5657
11	63	5251
12	64	4906
13	65	4626
14	66	4369
15	67	4147
16	68	3946
17	69	3771
18	69	3612
19	70	3468
20	71	3338
21	72	3221
22	73	3114
23	74	3014
24	74	2922
25	75	2837
26	76	2759
27	77	2685
28	78	2615
29	78	2551
30	79	2491
31	80	2436
32	81	2382
33	82	2332
34	82	2285
35	83	2242
36	84	2200
37	85	2160
38	86	2121
39	86	2085
40	87	2051
41	88	2018
42	89	1986
43	90	1956
44	90	1927
45	91	1900
46	92	1873
47	93	1847
48	93	1824
49	94	1801
50	95	1780
51	96	1760
52	97	1739
53	98	1719
54	98	1700
55	99	1681
56	100	1664
57	101	1646
58	102	1629
59	102	1613
60	103	1598
61	104	1582
62	105	1567
63	106	1552
64	106	1538
65	107	1525
66	108	1511
67	109	1498
68	110	1485
69	110	1474
70	111	1462
71	112	1450
72	113	1439
73	114	1428
74	114	1417
75	115	1409
76	116	1399
77	117	1390
78	118	1381
79	119	1372
80	120	1363
81	120	1354
82	121	1345
83	122	1336
84	123	1327
85	124	1319
86	124	1310
87	125	1302
88	126	1294
89	127	1287
90	128	1279
91	128	1272
92	129	1264
93	130	1257
94	131	1251
95	132	1244
96	132	1237
97	133	1230
98	134	1223
99	135	1217
100	136	1210
101	136	1204
102	137	1198
103	138	1192
104	139	1186
105	139	1180
106	140	1174
107	141	1168
108	142	1163
109	143	1157
110	143	1152
111	144	1147
112	145	1142
113	146	1136
114	147	1131
115	147	1126
116	148	1121
117	149	1117
118	150	1112
119	151	1107
120	151	1102
121	152	1098
122	153	1093
123	154	1089
124	154	1084
125	155	1080
126	156	1077
127	157	1073
128	158	1069
129	159	1065
130	159	1060
131	160	1056
132	161	1052
133	162	1048
134	163	1044
135	163	1040
136	164	1036
137	165	1032
138	166	1029
139	166	1025
140	167	1021
141	168	1018
142	169	1014
143	170	1011
144	170	1007
145	171	1004
146	172	1001
147	173	997
148	174	994
149	174	991
150	175	988
151	176	984
152	177	981
153	178	978
154	178	974
155	179	971
156	180	968
157	181	965
158	181	962
159	182	959
160	183	956
161	184	953
162	185	950
163	185	947
164	186	944
165	187	942
166	188	939
167	189	936
168	189	933
169	190	930
170	191	927
171	192	925
172	193	923
173	193	920
174	194	917
175	195	915
176	196	912
177	197	909
178	197	907
179	198	904
180	199	902
181	200	899
182	200	897
183	201	894
184	202	892
185	203	890
186	204	887
187	205	885
188	205	883
189	206	880
190	207	878
191	208	876
192	208	873
193	209	871
194	210	869
195	211	867
196	212	864
197	213	862
198	213	860
199	214	858
200	215	856
201	216	853
202	216	851
203	217	849
204	218	847
205	219	845
206	220	843
207	220	840
208	221	838
209	222	836
210	223	834
211	224	832
212	225	832
213	226	830
214	226	827
215	227	825
216	228	823
217	228	821
218	229	819
219	230	817
220	231	815
221	232	813
222	232	811
223	234	811
224	235	811
225	241	828
226	243	827
227	244	826
228	245	826
229	246	825
230	248	826
231	249	825
232	250	824
233	251	824
234	253	824
235	254	823
236	255	823
237	257	823
238	258	822
239	259	821
240	260	821
241	262	821
242	263	820
243	264	820
244	265	819
245	273	839
246	275	839
247	276	837
248	277	837
249	278	835
250	279	833
251	280	832
252	282	832
253	283	831
254	284	830
255	285	829
256	286	829
257	288	829
258	289	827
259	290	826
260	291	825
261	292	824
262	293	823
263	295	822
264	295	820
265	297	819
266	298	818
267	299	817
268	300	816
269	301	815
270	302	814
271	303	812
272	304	811
273	306	811
274	307	810
275	308	809
276	309	808
277	312	810
278	313	810
279	314	809
280	316	809
281	317	809
282	319	809
283	320	807
284	321	806
285	322	804
286	323	802
287	323	800
288	324	798
289	325	796
290	326	794
291	326	792
292	327	791
293	329	790
294	330	789
295	331	788
296	333	788
297	334	787
298	335	787
299	337	786
300	338	785
301	339	784
302	341	784
303	342	783
304	343	782
305	344	782
306	346	781
307	347	780
308	348	778
309	348	776
310	349	774
311	350	772
312	351	771
313	352	769
314	352	767
315	353	765
316	354	763
317	355	761
318	355	759
319	356	758
320	357	756
321	358	754
322	359	752
323	359	751
324	360	749
325	361	747
326	362	745
327	363	743
328	363	742
329	364	740
330	365	739
331	366	737
332	367	735
333	368	734
334	369	732
335	369	731
336	370	729
337	371	727
338	372	726
339	373	724
340	374	723
341	374	721
342	375	719
343	376	718
344	377	716
345	378	714
346	379	713
347	379	711
348	380	709
349	381	708
350	382	706
351	382	705
352	383	703
353	384	702
354	386	701
355	387	701
356	388	700
357	390	699
358	391	699
359	392	697
360	393	696
361	394	694
362	395	693
363	395	691
364	396	690
365	397	688
366	398	686
367	399	685
368	399	683
369	400	682
370	401	680
371	402	678
372	402	677
373	403	675
374	404	674
375	405	672
376	405	670
377	406	669
378	407	667
379	408	666
380	409	664
381	409	663
382	410	661
383	411	659
384	412	658
385	412	656
386	413	655
387	414	653
388	415	652
389	416	650
390	416	649
391	417	647
392	419	647
393	420	646
394	424	650
395	426	650
396	427	648
397	428	647
398	429	646
399	430	645
400	431	644
401	432	644
402	434	643
403	435	642
404	436	640
405	437	639
406	438	639
407	439	638
408	440	637
409	442	636
410	444	636
411	445	635
412	447	635
413	447	634
414	448	632
415	449	631
416	450	630
417	451	628
418	452	627
419	453	626
420	454	624
421	455	624
422	456	622
423	457	621
424	458	620
425	459	618
426	460	617
427	460	615
428	461	614
429	462	612
430	463	611
431	463	609
432	464	608
433	465	606
434	466	605
435	467	604
436	468	602
437	468	601
438	469	600
439	470	598
440	471	597
441	471	595
442	472	594
443	473	592
444	474	591
445	475	590
446	475	588
447	476	587
448	477	585
449	478	584
450	478	582
451	479	581
452	480	580
453	481	578
454	481	577
455	482	575
456	483	574
457	484	573
458	485	571
459	485	570
460	486	568
461	487	567
462	488	566
463	488	564
464	489	563
465	490	562
466	491	560
467	491	559
468	492	557
469	493	556
470	494	555
471	495	553
472	495	552
473	496	551
474	497	549
475	498	548
476	498	546
477	499	545
478	500	544
479	501	542
480	501	541
481	502	540
482	503	539
483	504	537
484	505	536
485	505	535
486	506	533
487	507	532
488	508	531
489	509	529
490	509	528
491	510	527
492	511	526
493	512	524
494	513	523
495	513	522
496	514	520
497	515	519
498	516	518
499	517	517
500	517	515
501	518	514
502	519	513
503	520	512
504	521	510
505	522	509
506	523	508
507	523	507
508	524	506
509	525	505
510	526	503
511	527	502
512	528	501
513	529	500
514	530	499
515	530	498
516	531	496
517	532	495
518	533	494
519	534	493
520	535	492
521	535	490
522	536	489
523	537	488
524	538	487
525	539	485
526	540	484
527	540	483
528	541	482
529	542	481
530	543	479
531	544	478
532	544	477
533	545	476
534	546	474
535	547	473
536	547	472
537	548	471
538	549	469
539	550	468
540	551	467
541	551	466
542	552	465
543	553	463
544	554	462
545	554	461
546	555	460
547	556	458
548	557	457
549	557	456
550	558	455
551	559	454
552	560	452
553	561	451
554	561	450
555	562	449
556	563	448
557	564	446
558	564	445
559	565	444
560	566	443
561	567	442
562	568	440
563	568	439
564	569	438
565	570	437
566	571	436
567	571	435
568	572	433
569	573	432
570	574	431
571	575	430
572	575	429
573	576	428
574	577	426
575	578	425
576	579	424
577	579	423
578	580	422
579	581	421
580	582	419
581	583	418
582	583	417
583	584	416
584	585	415
585	586	414
586	587	413
587	587	411
588	588	410
589	589	409
590	590	408
591	590	407
592	591	406
593	592	404
594	593	403
595	594	402
596	594	401
597	595	400
598	596	399
599	597	398
600	598	397
601	598	395
602	599	394
603	600	393
604	601	392
605	602	391
606	604	391
607	605	390
608	606	389
609	608	388
610	609	388
611	610	387
612	612	386
613	613	385
614	614	384
615	616	384
616	617	383
617	618	382
618	620	381
619	621	380
620	622	379
621	623	379
622	625	378
623	626	377
624	627	376
625	630	376
626	632	376
627	633	375
628	635	374
629	635	373
630	636	372
631	637	371
632	638	369
633	638	368
634	639	367
635	640	366
636	641	365
637	641	364
638	642	363
639	643	361
640	644	360
641	645	359
642	645	358
643	646	357
644	647	356
645	648	355
646	649	354
647	649	353
648	650	351
649	651	350
650	652	349
651	653	348
652	653	347
653	654	346
654	655	345
655	656	344
656	657	343
657	657	341
658	658	340
659	659	339
660	660	338
661	660	337
662	661	336
663	662	335
664	663	334
665	664	333
666	665	332
667	666	331
668	668	330
669	669	329
670	671	329
671	672	328
672	673	327
673	674	326
674	675	325
675	676	324
676	677	323
677	678	322
678	679	321
679	680	320
680	682	319
681	683	318
682	684	317
683	685	316
684	687	316
685	688	315
686	689	314
687	691	313
688	692	312
689	693	311
690	694	310
691	695	309
692	696	308
693	697	307
694	698	306
695	698	305
696	699	304
697	700	303
698	701	302
699	702	300
700	703	299
701	703	298
702	704	297
703	705	296
704	706	295
705	707	294
706	708	293
707	708	292
708	709	291
709	710	290
710	711	289
711	712	288
712	712	286
713	713	285
714	714	284
715	715	283
716	716	282
717	717	281
718	718	280
719	718	279
720	719	278
721	720	277
722	721	276
723	722	275
724	723	274
725	724	273
726	725	272
727	725	271
728	726	270
729	727	269
730	728	268
731	729	266
732	729	265
733	730	264
734	731	263
735	732	262
736	733	261
737	734	260
738	734	259
739	735	258
740	736	257
741	737	256
742	738	255
743	739	254
744	739	253
745	740	252
746	741	251
747	742	250
748	743	249
749	743	247
750	744	246
751	745	245
752	746	244
753	746	243
754	747	242
755	748	241
756	749	240
757	749	239
758	750	238
759	751	237
760	752	236
761	753	235
762	753	234
763	754	233
764	755	232
765	756	230
766	756	229
767	757	228
768	758	227
769	759	226
770	759	225
771	760	224
772	761	223
773	762	222
774	763	221
775	763	220
776	764	219
777	765	218
778	766	217
779	766	216
780	767	215
781	768	214
782	769	213
783	769	212
784	770	211
785	771	210
786	772	209
787	773	207
788	773	206
789	774	205
790	775	204
791	776	203
792	776	202
793	777	201
794	778	200
795	779	199
796	780	198
797	781	197
798	781	196
799	782	195
800	783	194
801	784	193
802	785	192
803	785	191
804	786	190
805	792	190
806	793	189
807	795	188
808	796	188
809	797	187
810	798	186
811	799	185
812	800	184
813	802	183
814	803	182
815	804	181
816	805	180
817	806	179
818	807	178
819	809	177
820	810	176
821	811	175
822	813	174
823	814	173
824	816	173
825	817	172
826	818	171
827	819	170
828	820	169
829	820	168
830	821	167
831	822	166
832	823	165
833	824	164
834	824	163
835	825	161
836	826	160
837	827	159
838	828	158
839	828	157
840	829	156
841	830	155
842	831	154
843	832	153
844	833	152
845	834	151
846	835	150
847	835	149
848	836	148
849	837	147
850	838	146
851	839	145
852	839	144
853	840	143
854	841	142
855	842	141
856	842	140
857	843	139
858	844	138
859	845	137
860	846	136
861	847	135
862	847	134
863	849	133
864	851	132
865	852	131
866	854	131
867	856	130
868	857	129
869	857	128
870	858	127
871	859	126
872	860	125
873	861	124
874	862	123
875	863	122
876	863	121
877	864	120
878	865	119
879	866	118
880	867	117
881	867	116
882	868	115
883	869	114
884	870	113
885	870	112
886	871	111
887	872	110
888	873	109
889	874	108
890	874	107
891	875	106
892	876	105
893	877	104
894	878	103
895	879	102
896	880	101
897	880	100
898	881	99
899	882	98
900	883	97
901	883	96
902	884	95
903	885	94
904	886	93
905	887	92
906	887	91
907	888	90
908	889	89
909	890	88
910	891	87
911	891	86
912	892	85
913	893	84
914	894	83
915	895	82
916	895	81
917	896	80
918	897	79
919	898	78
920	899	77
921	899	76
922	900	75
923	901	74
924	902	73
925	903	72
926	904	71
927	904	70
928	905	69
929	906	68
930	907	67
931	908	66
932	908	65
933	909	64
934	910	63
935	911	62
936	912	61
937	912	60
938	913	59
939	914	58
940	915	57
941	915	56
942	916	55
943	917	54
944	918	53
945	918	52
946	919	51
947	920	50
948	921	49
949	922	48
950	923	47
951	923	46
952	924	45
953	925	44
954	926	43
955	926	42
956	927	41
957	928	40
958	929	39
959	929	38
960	930	37
961	931	36
962	932	35
963	933	34
964	933	33
965	934	32
966	935	31
967	936	30
968	937	29
969	937	29
970	938	28
971	939	27
972	940	26
973	941	25
974	941	24
975	942	23
976	943	22
977	944	21
978	945	20
979	945	19
980	946	18
981	947	17
982	948	16
983	949	15
984	949	14
985	950	13
986	951	12
987	952	11
988	953	10
989	953	9
990	954	8
991	955	7
992	956	6
993	956	5
994	957	4
995	958	3
996	959	2
997	960	1
998	960	0
999	961	0
